<?xml version="1.0" encoding="UTF-8"?>
<svg width="20px" height="20px" viewBox="0 0 20 20" version="1.1" xmlns="http://www.w3.org/2000/svg" xmlns:xlink="http://www.w3.org/1999/xlink">
    <title>Icons/icon-sum</title>
    <g id="Symbols" stroke="none" stroke-width="1" fill="none" fill-rule="evenodd">
        <g id="Components/Map-Toolbar-basic" transform="translate(-23.000000, -273.000000)" fill="#D53E2A">
            <g id="Toolbar" transform="translate(0.000000, -54.000000)">
                <g id="Seps" transform="translate(0.000000, 54.000000)">
                    <g id="Icons/icon-sum" transform="translate(23.000000, 273.000000)">
                        <path d="M2,2 L14,2 L14,12 L18,12 L18,18 L12,18 L12,14 L2,14 L2,2 Z M0,2 C0,0.896 0.896,0 2,0 L14.18,0 C15.284,0 16.18,0.896 16.18,2 L16.18,10 L18,10 C19.104,10 20,10.896 20,12 L20,18 C20,19.104 19.104,20 18,20 L12,20 C10.896,20 10,19.104 10,18 L10,16.18 L2,16.18 C0.896,16.18 0,15.284 0,14.18 L0,2 Z" id="Fill-1"></path>
                        <polygon id="Path" points="7 7 7 4 9 4 9 7 12 7 12 9 9 9 9 12 7 12 7 9 4 9 4 7"></polygon>
                    </g>
                </g>
            </g>
        </g>
    </g>
</svg>