<?xml version="1.0" encoding="UTF-8"?>
<svg id="Calque_2" data-name="Calque 2" xmlns="http://www.w3.org/2000/svg" viewBox="0 0 37.3 37.3">
  <defs>
    <style>
      .cls-1 {
        fill: #9fd1b6;
      }

      .cls-2 {
        fill: none;
      }

      .cls-3 {
        fill: #00799c;
      }
    </style>
  </defs>
  <g id="Calque_2-2" data-name="Calque 2">
    <g>
      <rect class="cls-2" width="37.3" height="37.3"/>
      <polygon class="cls-1" points="9.56 7.61 14.57 4.91 19.97 6.07 23.95 2.47 27.04 5.43 27.42 9.67 26.27 12.75 31.54 16.09 33.34 22.65 30.89 22.77 29.61 25.22 34.24 28.17 21 34.73 20.74 32.93 13.16 31.38 11.62 27.02 9.82 26.63 10.59 23.8 7.25 24.96 2.24 22.52 4.16 19.18 7.51 18.53 8.02 14.42 6.61 12.75 9.18 9.67 9.56 7.61"/>
      <path class="cls-3" d="M23.44,14.16l3.88-5.67-.28-3.06-1.82-1.74-1.27,2.65-3.89,5.68c-.05,.07-.1,.15-.14,.23l-2.45,4.89c-.1,.21-.17,.43-.2,.66l-.57,4.82-3.99,7.51,.44,1.25,3.09,.63,4.17-7.84c.12-.22,.19-.46,.22-.71l.57-4.85,2.23-4.46Z"/>
    </g>
  </g>
</svg>