<?xml version="1.0" encoding="UTF-8" standalone="no"?>
<svg
   xmlns:dc="http://purl.org/dc/elements/1.1/"
   xmlns:cc="http://creativecommons.org/ns#"
   xmlns:rdf="http://www.w3.org/1999/02/22-rdf-syntax-ns#"
   xmlns:svg="http://www.w3.org/2000/svg"
   xmlns="http://www.w3.org/2000/svg"
   xmlns:sodipodi="http://sodipodi.sourceforge.net/DTD/sodipodi-0.dtd"
   xmlns:inkscape="http://www.inkscape.org/namespaces/inkscape"
   viewBox="0 0 42.464734 42.464735"
   version="1.1"
   id="svg37"
   sodipodi:docname="pipe-on.svg"
   width="42.464733"
   height="42.464733"
   inkscape:version="1.0.2 (1.0.2+r75+1)">
  <metadata
     id="metadata41">
    <rdf:RDF>
      <cc:Work
         rdf:about="">
        <dc:format>image/svg+xml</dc:format>
        <dc:type
           rdf:resource="http://purl.org/dc/dcmitype/StillImage" />
        <dc:title>pipe-on</dc:title>
      </cc:Work>
    </rdf:RDF>
  </metadata>
  <sodipodi:namedview
     pagecolor="#ffffff"
     bordercolor="#666666"
     borderopacity="1"
     objecttolerance="10"
     gridtolerance="10"
     guidetolerance="10"
     inkscape:pageopacity="0"
     inkscape:pageshadow="2"
     inkscape:window-width="1920"
     inkscape:window-height="1016"
     id="namedview39"
     showgrid="false"
     fit-margin-top="0"
     fit-margin-left="0"
     fit-margin-right="0"
     fit-margin-bottom="0"
     inkscape:zoom="4.840033"
     inkscape:cx="21.230886"
     inkscape:cy="18.084854"
     inkscape:window-x="1920"
     inkscape:window-y="27"
     inkscape:window-maximized="1"
     inkscape:current-layer="Layer_1-2"
     inkscape:document-rotation="0" />
  <defs
     id="defs7">
    <style
       id="style2">.cls-1,.cls-5,.cls-6,.cls-7{fill:none;}.cls-2{fill:#8db63c;}.cls-3{clip-path:url(#clip-path);}.cls-4{fill:#fff;}.cls-5{stroke:#1d1d1b;stroke-width:1.17px;}.cls-5,.cls-6{stroke-linecap:round;stroke-linejoin:round;}.cls-6{stroke:#e30613;stroke-width:2px;}.cls-7{stroke:#fff;stroke-width:3px;}</style>
    <clipPath
       id="clip-path">
      <path
         class="cls-1"
         d="M 21.23,1.5 A 19.73,19.73 0 1 0 41,21.23 19.73,19.73 0 0 0 21.23,1.5 Z"
         id="path4"
         inkscape:connector-curvature="0"
         style="fill:none" />
    </clipPath>
  </defs>
  <title
     id="title9">pipe-on</title>
  <g
     id="Layer_2"
     data-name="Layer 2"
     transform="translate(8.8668584e-4,-1.2097794e-4)">
    <g
       id="Layer_1-2"
       data-name="Layer 1">
      <path
         class="cls-2"
         d="M 21.23,41 A 19.73,19.73 0 1 0 1.5,21.23 19.73,19.73 0 0 0 21.23,41"
         id="path11"
         inkscape:connector-curvature="0"
         style="fill:#096077;fill-opacity:1" />
      <g
         class="cls-3"
         clip-path="url(#clip-path)"
         id="g31">
        <polygon
           class="cls-4"
           points="10.58,14.8 21.23,20.95 31.88,14.8 21.23,8.65 "
           id="polygon13"
           style="fill:#ffffff" />
        <polygon
           class="cls-5"
           points="10.58,14.8 21.23,20.95 31.88,14.8 21.23,8.65 "
           id="polygon15"
           style="fill:none;stroke:#1d1d1b;stroke-width:1.16999996px;stroke-linecap:round;stroke-linejoin:round" />
        <polygon
           class="cls-4"
           points="10.58,31.03 10.58,41.36 21.23,47.51 31.88,41.36 31.88,31.03 21.23,37.18 "
           id="polygon17"
           style="fill:#ffffff" />
        <polygon
           class="cls-5"
           points="10.58,31.03 10.58,41.36 21.23,47.51 31.88,41.36 31.88,31.03 21.23,37.18 "
           id="polygon19"
           style="fill:none;stroke:#1d1d1b;stroke-width:1.16999996px;stroke-linecap:round;stroke-linejoin:round" />
        <polygon
           class="cls-4"
           points="10.58,14.8 10.58,31.03 21.23,37.18 31.88,31.03 31.88,14.8 21.23,20.95 "
           id="polygon21"
           style="fill:#ffffff" />
        <polygon
           class="cls-5"
           points="10.58,14.8 10.58,31.03 21.23,37.18 31.88,31.03 31.88,14.8 21.23,20.95 "
           id="polygon23"
           style="fill:none;stroke:#1d1d1b;stroke-width:1.16999996px;stroke-linecap:round;stroke-linejoin:round" />
        <polygon
           class="cls-4"
           points="10.58,19.91 10.58,25.25 21.23,31.4 31.88,25.25 31.88,19.91 21.23,26.06 "
           id="polygon25"
           style="fill:#ffffff" />
        <polygon
           class="cls-5"
           points="10.58,19.91 10.58,25.25 21.23,31.4 31.88,25.25 31.88,19.91 21.23,26.06 "
           id="polygon27"
           style="fill:none;stroke:#1d1d1b;stroke-width:1.16999996px;stroke-linecap:round;stroke-linejoin:round" />
        <polyline
           class="cls-6"
           points="26.57 47.76 26.57 17.76 21.25 14.69"
           id="polyline29"
           style="fill:none;stroke:#e30613;stroke-width:2px;stroke-linecap:round;stroke-linejoin:round" />
      </g>
      <circle
         class="cls-7"
         cx="21.23"
         cy="21.23"
         r="19.73"
         transform="rotate(-10.9,21.243774,21.223489)"
         id="circle33"
         style="fill:none;stroke:#ffffff;stroke-width:3px" />
    </g>
  </g>
</svg>
