<?xml version="1.0" encoding="UTF-8" standalone="no"?>
<svg
   viewBox="0 0 64.66 54.27"
   version="1.1"
   id="svg26"
   sodipodi:docname="05-ppas.svg"
   inkscape:version="1.1.2 (1:1.1+202202050950+0a00cf5339)"
   xmlns:inkscape="http://www.inkscape.org/namespaces/inkscape"
   xmlns:sodipodi="http://sodipodi.sourceforge.net/DTD/sodipodi-0.dtd"
   xmlns="http://www.w3.org/2000/svg"
   xmlns:svg="http://www.w3.org/2000/svg">
  <sodipodi:namedview
     id="namedview28"
     pagecolor="#ffffff"
     bordercolor="#666666"
     borderopacity="1.0"
     inkscape:pageshadow="2"
     inkscape:pageopacity="0.0"
     inkscape:pagecheckerboard="0"
     showgrid="false"
     inkscape:zoom="16.086235"
     inkscape:cx="32.325773"
     inkscape:cy="27.135"
     inkscape:window-width="2075"
     inkscape:window-height="1376"
     inkscape:window-x="0"
     inkscape:window-y="27"
     inkscape:window-maximized="0"
     inkscape:current-layer="Calque_2-2" />
  <defs
     id="defs4">
    <style
       id="style2">.cls-1{fill:#d9d9d9;}.cls-2{fill:#289084;}.cls-2,.cls-3{stroke:#fff;stroke-miterlimit:10;stroke-width:1.5px;}.cls-3{fill:none;stroke-linecap:round;}</style>
  </defs>
  <g
     id="Calque_2"
     data-name="Calque 2">
    <g
       id="Calque_2-2"
       data-name="Calque 2">
      <ellipse
         class="cls-1"
         cx="32.330002"
         cy="33.48"
         rx="32.330002"
         ry="20.780001"
         id="ellipse6"
         style="fill:#d9d9d9;fill-opacity:0" />
      <path
         class="cls-2"
         d="M51.16,14.48V7.66H7.45V40.11H51.16c3.34,0,6.05-2,6.05-4.58v-21Z"
         id="path8" />
      <path
         class="cls-2"
         d="M45.12,35.53c0-2.53,2.71-4.58,6-4.58s6.05,2.05,6.05,4.58V5.33C57.21,2.8,54.5.75,51.16.75s-6,2.05-6,4.58Z"
         id="path10" />
      <polyline
         class="cls-3"
         points="32.15 36.32 34.74 29.41 39.19 21.83 44.84 11.27"
         id="polyline12" />
      <polyline
         class="cls-3"
         points="42.23 36.32 34.74 29.41 20.65 25.02 14.54 29.74"
         id="polyline14" />
      <polyline
         class="cls-3"
         points="24.71 36.32 20.65 25.02 27.28 16.02 19.59 11.13"
         id="polyline16" />
      <polyline
         class="cls-3"
         points="44.84 22.36 39.19 21.83 27.28 16.02"
         id="polyline18" />
      <polyline
         class="cls-3"
         points="14.54 16.9 29.04 23.75 34.14 19.18 32.91 11.13"
         id="polyline20" />
      <line
         class="cls-3"
         x1="29.04"
         y1="23.75"
         x2="34.74"
         y2="29.41"
         id="line22" />
    </g>
  </g>
</svg>
